Subquestion 3: Government Expenditure
…
I would like to do an ANOVA test, which will tell us whether the relationship between government expenditure and public approval differs by party leaning. We have to pivot the data frame slightly so that we have the distinct Republican and Democrat parties for the ANOVA test

pivoted_df <- combine_exp_parties |>
  select(year, rep_trust_prop, dem_trust_prop, p_exp_of_gdp) |>
  pivot_longer(
    cols = c(rep_trust_prop, dem_trust_prop),
    names_to = "party",
    values_to = "approval"
  ) |>
  mutate(party = ifelse(party == "rep_trust_prop", "Republican", "Democrat"))

print(pivoted_df)

# A tibble: 104 × 4
    year p_exp_of_gdp party      approval
   <dbl>        <dbl> <chr>         <dbl>
 1  1958        0.183 Republican     0.79
 2  1958        0.183 Democrat       0.71
 3  1964        0.173 Republican     0.73
 4  1964        0.173 Democrat       0.8 
 5  1966        0.177 Republican     0.54
 6  1966        0.177 Democrat       0.71
 7  1968        0.196 Republican     0.6 
 8  1968        0.196 Democrat       0.66
 9  1970        0.205 Republican     0.61
10  1970        0.205 Democrat       0.52
# ℹ 94 more rows
…
